[
    {
        "name": "Рахбарият"
    },
    {
        "name": "Банк ижро аппарати"
    },
    {
        "name": "Жамоатчилик билан алоқалар ва маркетинг департаменти"
    },
    {
        "name": "Биринчи бўлим"
    },
    {
        "name": "Корпоратив муносабатлар хизмати"
    },
    {
        "name": "Лойиҳа офиси"
    },
    {
        "name": "Хавфсизлик ва ахборотларни муҳофаза қилиш бошқармаси"
    },
    {
        "name": "Ходимлар билан ишлаш департаменти"
    },
    {
        "name": "Юридик департаменти"
    },
    {
        "name": "Ички аудит департаменти"
    },
    {
        "name": "Ғазначилик департаменти"
    },
    {
        "name": "Ташқи иқтисодий фаолият департаменти"
    },
    {
        "name": "Валюта амалиётлари ва нақд пул оқимларини бошқариш департаменти"
    },
    {
        "name": "Кредитлаш департаменти"
    },
    {
        "name": "Таваккалчилик департаменти"
    },
    {
        "name": "Кредит мониторинги ва муаммоли активлар билан ишлаш департаменти"
    },
    {
        "name": "Стратегик ривожланиш ва иқтисодий таҳлил департаменти"
    },
    {
        "name": "Комплаенс назорат департаменти"
    },
    {
        "name": "Чакана бизнес департаменти"
    },
    {
        "name": "Бухгалтерия ҳисоби ва молиявий назорат департаменти"
    },
    {
        "name": "Ахборот технологиялари департаменти"
    },
    {
        "name": "Қурилиш мониторинги бошқармаси"
    },
    {
        "name": "Ишларни бошқариш департаменти"
    }
]
